{
  "project_info": {
    "project_number": "454709761134",
    "firebase_url": "https://nemo-app-76151.firebaseio.com",
    "project_id": "nemo-app-76151",
    "storage_bucket": "nemo-app-76151.appspot.com"
  },
  "client": [
    {
      "client_info": {
        "mobilesdk_app_id": "1:454709761134:android:86ac17eebbc4103db8027f",
        "android_client_info": {
          "package_name": "de.nemo.mint"
        }
      },
      "oauth_client": [
        {
          "client_id": "454709761134-0rh7i7u2sk01pnbuqimf42p03gcri05r.apps.googleusercontent.com",
          "client_type": 3
        }
      ],
      "api_key": [
        {
          "current_key": "AIzaSyBrNQl_6F_N-WZhKPdtO8WPuQe1qouZdus"
        }
      ],
      "services": {
        "appinvite_service": {
          "other_platform_oauth_client": [
            {
              "client_id": "454709761134-0rh7i7u2sk01pnbuqimf42p03gcri05r.apps.googleusercontent.com",
              "client_type": 3
            }
          ]
        }
      }
    }
  ],
  "configuration_version": "1"
}
